JHU COVID-19 Data by State and National
…
16, 316, 630, 580, 850 Filter US ID Values

us_uid <- uid %>% 
  filter(code3 %in% c(16, 316, 580, 850, 630, 840)) %>%
  select(UID, Admin2, Province_State, Combined_Key, Population) %>% 
  arrange(UID)
us_uid

## # A tibble: 3,404 x 5
##         UID Admin2     Province_State        Combined_Key             Population
##       <int> <chr>      <chr>                 <chr>                         <int>
##  1       16 <NA>       American Samoa        American Samoa, US            55641
##  2      316 <NA>       Guam                  Guam, US                     164229
##  3      580 <NA>       Northern Mariana Isl Northern Mariana Island      55144
##  4      630 <NA>       Puerto Rico           Puerto Rico, US             3193694
##  5      840 <NA>       <NA>                  US                        329466283
##  6      850 <NA>       Virgin Islands        Virgin Islands, US           107268
##  7 63072001 Adjuntas   Puerto Rico           Adjuntas, Puerto Rico,       17363
##  8 63072003 Aguada     Puerto Rico           Aguada, Puerto Rico, US       36694
##  9 63072005 Aguadilla  Puerto Rico           Aguadilla, Puerto Rico,      50265
## 10 63072007 Aguas Bue Puerto Rico           Aguas Buenas, Puerto Ri      24814
## #  with 3,394 more rows

states <- c(us_uid$Province_State[1:4], us_uid$Province_State[6:57])
states_uid <-seq(84000001, 84000056, by = 1)
uid_states <- us_uid %>% 
  filter(UID %in% c(seq(84000001, 84000056, by = 1))) %>% 
  filter(UID != 84000011)
uid_states

## # A tibble: 50 x 5
##         UID Admin2 Province_State Combined_Key    Population
##       <int> <chr>  <chr>          <chr>                <int>
##  1 84000001 <NA>   Alabama        Alabama, US        4903185
##  2 84000002 <NA>   Alaska         Alaska, US          731545
##  3 84000004 <NA>   Arizona        Arizona, US        7278717
##  4 84000005 <NA>   Arkansas       Arkansas, US       3017804
##  5 84000006 <NA>   California     California, US    39512223
##  6 84000008 <NA>   Colorado       Colorado, US       5758736
##  7 84000009 <NA>   Connecticut    Connecticut, US    3565287
##  8 84000010 <NA>   Delaware       Delaware, US        973764
##  9 84000012 <NA>   Florida        Florida, US       21477737
## 10 84000013 <NA>   Georgia        Georgia, US       10617423
## #  with 40 more rows
…
## # A tibble: 2 x 4
##   vote        sum      avg  median
##   <fct>     <int>    <dbl>   <dbl>
## 1 Rep   140503959 6386544. 4430078
## 2 Dem   153941507 7330548. 5639632

daily_updates_ts_sorted <- daily_updates_ts %>% mutate(vote = case_when(
  state %in% blue_states ~ "Dem",
  state %in% red_states ~ "Rep"
)) %>% 
  mutate(vote = factor(vote)) %>% mutate(vote = fct_relevel(vote, c("Rep", "Dem")))
daily_updates_ts_sorted

## # A tibble: 10,857 x 22
##    state Country_Region date          UID ISO3  confirmed deaths recovered
##    <chr> <chr>          <date>      <dbl> <chr>     <dbl>  <dbl>     <dbl>
##  1 Alab US             2020-04-12 8.40e7 USA        3667     93        NA
##  2 Alas US             2020-04-12 8.40e7 USA         272      8        66
##  3 Ariz US             2020-04-12 8.40e7 USA        3542    115        NA
##  4 Arka US             2020-04-12 8.40e7 USA        1280     27       367
##  5 Cali US             2020-04-12 8.40e7 USA       22795    640        NA
##  6 Colo US             2020-04-12 8.40e7 USA        7307    289        NA
##  7 Conn US             2020-04-12 8.40e7 USA       12035    554        NA
##  8 Dela US             2020-04-12 8.40e7 USA        1625     35       191
##  9 Flor US             2020-04-12 8.40e7 USA       19895    461        NA
## 10 Geor US             2020-04-12 8.40e7 USA       12452    433        NA
## #  with 10,847 more rows, and 14 more variables: active <dbl>,
## #   Mortality_Rate <dbl>, tested <dbl>, Testing_Rate <dbl>, hospitalized <dbl>,
## #   Hospitalization_Rate <dbl>, Incident_Rate <dbl>, Case_Fatality_Ratio <dbl>,
## #   Total_Test_Results <dbl>, Admin2 <chr>, Combined_Key <chr>,
## #   Population <int>, Pop_fac <fct>, vote <fct>
…
Cases Time Series

#matches("`(1?[0-9]{1})/([0-2]?[0-9]{1}/20)`")
cases_ts <- csse_confirmed_us_ts %>%
  select(-Lat, -Long_, -FIPS) %>%
  filter(Province_State %in% us_uid$Province_State) %>% 
  filter(!(is.na(Admin2))) %>% 
  filter(!(Province_State %in% c("Diamond Princess", "Recovered", "Grand Princess"))) %>%
  group_by(UID) %>%
  pivot_longer(`1/22/20`:last_col(), names_to = "date", values_to = "cases") %>%
  #gather(`1/22/20`:last_col(), key = "date", value = "cases") %>% 
  ungroup()
cases_ts  

## # A tibble: 1,006,868 x 10
##    UID   iso2  iso3  code3 Admin2 Province_State Country_Region Combined_Key
##    <chr> <chr> <chr> <dbl> <chr>  <chr>          <chr>          <chr>       
##  1 8400 US    USA     840 Autau Alabama        US             Autauga, Al
##  2 8400 US    USA     840 Autau Alabama        US             Autauga, Al
##  3 8400 US    USA     840 Autau Alabama        US             Autauga, Al
##  4 8400 US    USA     840 Autau Alabama        US             Autauga, Al
##  5 8400 US    USA     840 Autau Alabama        US             Autauga, Al
##  6 8400 US    USA     840 Autau Alabama        US             Autauga, Al
##  7 8400 US    USA     840 Autau Alabama        US             Autauga, Al
##  8 8400 US    USA     840 Autau Alabama        US             Autauga, Al
##  9 8400 US    USA     840 Autau Alabama        US             Autauga, Al
## 10 8400 US    USA     840 Autau Alabama        US             Autauga, Al
## #  with 1,006,858 more rows, and 2 more variables: date <chr>, cases <int>
…
top5deaths_today_pht <- deaths_ts_states %>%
  filter(date == day) %>% 
  top_n(10, deaths_per_hundred_thousand)

priority_states <- c("Maryland", "Texas", "Virginia", "California", "Georgia", "Florida")

priority_cases_today <- cases_ts_states %>% 
  filter(date == day & (state %in% top5cases_today$state | state %in% priority_states)) %>% 
  mutate(state = fct_reorder(state, cases_delta))
priority_cases_today

## # A tibble: 27 x 14
##       UID date       state Combined_Key Population  cases cases_per_hundr
##     <int> <date>     <fct> <chr>             <int>  <int>            <dbl>
##  1 8.40e7 2020-11-18 Ariz Arizona, US     7278717 2.83e5            3889.
##  2 8.40e7 2020-11-18 Cali California,   39512223 1.06e6            2693.
##  3 8.40e7 2020-11-18 Colo Colorado, US    5758736 1.77e5            3068.
##  4 8.40e7 2020-11-18 Flor Florida, US    21477737 9.05e5            4215.
##  5 8.40e7 2020-11-18 Geor Georgia, US    10617423 4.34e5            4085.
##  6 8.40e7 2020-11-18 Illi Illinois, US   12671821 6.07e5            4788.
##  7 8.40e7 2020-11-18 Indi Indiana, US     6732219 2.68e5            3984.
##  8 8.40e7 2020-11-18 Iowa  Iowa, US        3155070 1.98e5            6260.
##  9 8.40e7 2020-11-18 Kans Kansas, US      2913314 1.31e5            4487.
## 10 8.40e7 2020-11-18 Mary Maryland, US    6045680 1.72e5            2842.
## #  with 17 more rows, and 7 more variables: cases_delta <dbl>,
## #   cases_delta_per_hundred_thousand <dbl>, cases_relative <dbl>,
## #   cases_perc <dbl>, cases_delta_ma <dbl>,
## #   cases_delta_ma_per_hundred_thousand <dbl>, vote <fct>
…
blue_states_ts <- combined_ts_states %>% 
  filter(date == day) %>% 
  filter(state %in% blue_states) %>% 
  mutate(vote = "Dem")

red_v_blue <- full_join(red_states_ts, blue_states_ts)

## Joining, by = c("UID", "date", "state", "Combined_Key", "Population", "cases", "cases_per_hundred_thousand", "cases_delta", "cases_delta_per_hundred_thousand", "cases_relative", "cases_perc", "cases_delta_ma", "cases_delta_ma_per_hundred_thousand", "vote", "Province_State", "deaths", "Admin2", "deaths_per_hundred_thousand", "deaths_delta", "deaths_relative", "deaths_delta_per_hundred_thousand", "deaths_delta_ma", "deaths_delta_ma_per_hundred_thousand", "deaths_perc", "deaths_perc_ma")

red_v_blue %<>% mutate(vote = factor(vote)) %>% mutate(vote = fct_rev(vote))
red_v_blue

## # A tibble: 50 x 25
##       UID date       state Combined_Key Population  cases cases_per_hundr
##     <int> <date>     <fct> <chr>             <int>  <int>            <dbl>
##  1 8.40e7 2020-11-18 Alab Alabama, US     4903185 223486            4558 
##  2 8.40e7 2020-11-18 Alas Alaska, US       731545  25588            3498.
##  3 8.40e7 2020-11-18 Ariz Arizona, US     7278717 283102            3889.
##  4 8.40e7 2020-11-18 Arka Arkansas, US    3017804 137617            4560.
##  5 8.40e7 2020-11-18 Flor Florida, US    21477737 905248            4215.
##  6 8.40e7 2020-11-18 Geor Georgia, US    10617423 433732            4085.
##  7 8.40e7 2020-11-18 Idaho Idaho, US       1787065  86435            4837.
##  8 8.40e7 2020-11-18 Indi Indiana, US     6732219 268222            3984.
##  9 8.40e7 2020-11-18 Iowa  Iowa, US        3155070 197518            6260.
## 10 8.40e7 2020-11-18 Mary Maryland, US    6045680 171823            2842.
## #  with 40 more rows, and 18 more variables: cases_delta <dbl>,
## #   cases_delta_per_hundred_thousand <dbl>, cases_relative <dbl>,
## #   cases_perc <dbl>, cases_delta_ma <dbl>,
## #   cases_delta_ma_per_hundred_thousand <dbl>, vote <fct>,
## #   Province_State <chr>, deaths <int>, Admin2 <chr>,
## #   deaths_per_hundred_thousand <dbl>, deaths_delta <dbl>,
## #   deaths_relative <dbl>, deaths_delta_per_hundred_thousand <dbl>,
## #   deaths_delta_ma <dbl>, deaths_delta_ma_per_hundred_thousand <dbl>,
## #   deaths_perc <dbl>, deaths_perc_ma <dbl>
…
Tree Map of Proportions

tree_data <- red_v_blue %>% filter(date == max(date)) %>% top_n(25, deaths_per_hundred_thousand) %>% inner_join(uid)

## Joining, by = c("UID", "Combined_Key", "Population", "Province_State", "Admin2")

tree_data

## # A tibble: 25 x 32
##       UID date       state Combined_Key Population  cases cases_per_hundr
##     <int> <date>     <fct> <chr>             <int>  <int>            <dbl>
##  1 8.40e7 2020-11-18 Alab Alabama, US     4903185 223486            4558 
##  2 8.40e7 2020-11-18 Ariz Arizona, US     7278717 283102            3889.
##  3 8.40e7 2020-11-18 Arka Arkansas, US    3017804 137617            4560.
##  4 8.40e7 2020-11-18 Flor Florida, US    21477737 905248            4215.
##  5 8.40e7 2020-11-18 Geor Georgia, US    10617423 433732            4085.
##  6 8.40e7 2020-11-18 Indi Indiana, US     6732219 268222            3984.
##  7 8.40e7 2020-11-18 Iowa  Iowa, US        3155070 197518            6260.
##  8 8.40e7 2020-11-18 Mary Maryland, US    6045680 171823            2842.
##  9 8.40e7 2020-11-18 Mass Massachuset    6892503 195868            2842.
## 10 8.40e7 2020-11-18 Miss Mississippi    2976149 137396            4617.
## #  with 15 more rows, and 25 more variables: cases_delta <dbl>,
## #   cases_delta_per_hundred_thousand <dbl>, cases_relative <dbl>,
## #   cases_perc <dbl>, cases_delta_ma <dbl>,
## #   cases_delta_ma_per_hundred_thousand <dbl>, vote <fct>,
## #   Province_State <chr>, deaths <int>, Admin2 <chr>,
## #   deaths_per_hundred_thousand <dbl>, deaths_delta <dbl>,
## #   deaths_relative <dbl>, deaths_delta_per_hundred_thousand <dbl>,
## #   deaths_delta_ma <dbl>, deaths_delta_ma_per_hundred_thousand <dbl>,
## #   deaths_perc <dbl>, deaths_perc_ma <dbl>, iso2 <chr>, iso3 <chr>,
…
